{
    "KPlugin": {
        "Category": "Appearance",
        "Description": "Display window thumbnails on the edge of the screen",
        "EnabledByDefault": false,
        "Id": "thumbnailaside",
        "License": "GPL",
        "Name": "Thumbnail Aside"
    },
    "X-KDE-ConfigModule": "kwin_thumbnailaside_config"
}
