{
    "KPlugin": {
        "Category": "Focus",
        "Description": "Darken inactive windows",
        "EnabledByDefault": false,
        "Id": "diminactive",
        "License": "GPL",
        "Name": "Dim Inactive"
    },
    "X-KDE-ConfigModule": "kwin_diminactive_config",
    "org.kde.kwin.effect": {
        "video": "https://files.kde.org/plasma/kwin/effect-videos/dim_inactive.mp4"
    }
}
