{
    "KPlugin": {
        "Category": "Appearance",
        "Description": "Visualize touch points",
        "EnabledByDefault": false,
        "Id": "touchpoints",
        "License": "GPL",
        "Name": "Touch Points"
    }
}
